-- Merging decision tree log ---
manifest
ADDED from /Users/senaardyputra/Documents/EP&R Project/CommSprinkler/app/src/main/AndroidManifest.xml:2:1-66:12
	package
		ADDED from /Users/senaardyputra/Documents/EP&R Project/CommSprinkler/app/src/main/AndroidManifest.xml:4:5-37
		INJECTED from /Users/senaardyputra/Documents/EP&R Project/CommSprinkler/app/src/main/AndroidManifest.xml
		INJECTED from /Users/senaardyputra/Documents/EP&R Project/CommSprinkler/app/src/main/AndroidManifest.xml
	android:versionName
		INJECTED from /Users/senaardyputra/Documents/EP&R Project/CommSprinkler/app/src/main/AndroidManifest.xml
		INJECTED from /Users/senaardyputra/Documents/EP&R Project/CommSprinkler/app/src/main/AndroidManifest.xml
	xmlns:tools
		ADDED from /Users/senaardyputra/Documents/EP&R Project/CommSprinkler/app/src/main/AndroidManifest.xml:3:5-51
	xmlns:android
		ADDED from /Users/senaardyputra/Documents/EP&R Project/CommSprinkler/app/src/main/AndroidManifest.xml:2:11-69
	android:versionCode
		INJECTED from /Users/senaardyputra/Documents/EP&R Project/CommSprinkler/app/src/main/AndroidManifest.xml
		INJECTED from /Users/senaardyputra/Documents/EP&R Project/CommSprinkler/app/src/main/AndroidManifest.xml
uses-permission#android.permission.WRITE_EXTERNAL_STORAGE
ADDED from /Users/senaardyputra/Documents/EP&R Project/CommSprinkler/app/src/main/AndroidManifest.xml:6:5-81
MERGED from [CommSprinkler:fileChooser:unspecified] /Users/senaardyputra/Documents/EP&R Project/CommSprinkler/app/build/intermediates/exploded-aar/CommSprinkler/fileChooser/unspecified/AndroidManifest.xml:11:5-81
MERGED from [CommSprinkler:captureActivity:unspecified] /Users/senaardyputra/Documents/EP&R Project/CommSprinkler/app/build/intermediates/exploded-aar/CommSprinkler/captureActivity/unspecified/AndroidManifest.xml:33:5-81
	android:name
		ADDED from /Users/senaardyputra/Documents/EP&R Project/CommSprinkler/app/src/main/AndroidManifest.xml:6:22-78
uses-permission#android.permission.READ_EXTERNAL_STORAGE
ADDED from /Users/senaardyputra/Documents/EP&R Project/CommSprinkler/app/src/main/AndroidManifest.xml:7:5-80
	android:name
		ADDED from /Users/senaardyputra/Documents/EP&R Project/CommSprinkler/app/src/main/AndroidManifest.xml:7:22-77
uses-permission#android.permission.CAMERA
ADDED from /Users/senaardyputra/Documents/EP&R Project/CommSprinkler/app/src/main/AndroidManifest.xml:8:5-65
MERGED from [CommSprinkler:captureActivity:unspecified] /Users/senaardyputra/Documents/EP&R Project/CommSprinkler/app/build/intermediates/exploded-aar/CommSprinkler/captureActivity/unspecified/AndroidManifest.xml:27:5-65
	android:name
		ADDED from /Users/senaardyputra/Documents/EP&R Project/CommSprinkler/app/src/main/AndroidManifest.xml:8:22-62
uses-permission#android.permission.VIBRATE
ADDED from /Users/senaardyputra/Documents/EP&R Project/CommSprinkler/app/src/main/AndroidManifest.xml:9:5-66
MERGED from [CommSprinkler:captureActivity:unspecified] /Users/senaardyputra/Documents/EP&R Project/CommSprinkler/app/build/intermediates/exploded-aar/CommSprinkler/captureActivity/unspecified/AndroidManifest.xml:29:5-66
	android:name
		ADDED from /Users/senaardyputra/Documents/EP&R Project/CommSprinkler/app/src/main/AndroidManifest.xml:9:22-63
uses-permission#android.permission.FLASHLIGHT
ADDED from /Users/senaardyputra/Documents/EP&R Project/CommSprinkler/app/src/main/AndroidManifest.xml:10:5-69
MERGED from [CommSprinkler:captureActivity:unspecified] /Users/senaardyputra/Documents/EP&R Project/CommSprinkler/app/build/intermediates/exploded-aar/CommSprinkler/captureActivity/unspecified/AndroidManifest.xml:30:5-69
	android:name
		ADDED from /Users/senaardyputra/Documents/EP&R Project/CommSprinkler/app/src/main/AndroidManifest.xml:10:22-66
uses-permission#android.permission.READ_PHONE_STATE
ADDED from /Users/senaardyputra/Documents/EP&R Project/CommSprinkler/app/src/main/AndroidManifest.xml:11:5-75
	android:name
		ADDED from /Users/senaardyputra/Documents/EP&R Project/CommSprinkler/app/src/main/AndroidManifest.xml:11:22-72
application
ADDED from /Users/senaardyputra/Documents/EP&R Project/CommSprinkler/app/src/main/AndroidManifest.xml:13:5-64:19
REJECTED from [com.android.support:appcompat-v7:23.3.0] /Users/senaardyputra/Documents/EP&R Project/CommSprinkler/app/build/intermediates/exploded-aar/com.android.support/appcompat-v7/23.3.0/AndroidManifest.xml:25:5-20
REJECTED from [com.android.support:support-vector-drawable:23.3.0] /Users/senaardyputra/Documents/EP&R Project/CommSprinkler/app/build/intermediates/exploded-aar/com.android.support/support-vector-drawable/23.3.0/AndroidManifest.xml:7:5-20
REJECTED from [com.android.support:support-v4:23.3.0] /Users/senaardyputra/Documents/EP&R Project/CommSprinkler/app/build/intermediates/exploded-aar/com.android.support/support-v4/23.3.0/AndroidManifest.xml:22:5-20
REJECTED from [com.android.support:animated-vector-drawable:23.3.0] /Users/senaardyputra/Documents/EP&R Project/CommSprinkler/app/build/intermediates/exploded-aar/com.android.support/animated-vector-drawable/23.3.0/AndroidManifest.xml:7:5-20
REJECTED from [com.android.support:support-vector-drawable:23.3.0] /Users/senaardyputra/Documents/EP&R Project/CommSprinkler/app/build/intermediates/exploded-aar/com.android.support/support-vector-drawable/23.3.0/AndroidManifest.xml:7:5-20
REJECTED from [com.android.support:support-v4:23.3.0] /Users/senaardyputra/Documents/EP&R Project/CommSprinkler/app/build/intermediates/exploded-aar/com.android.support/support-v4/23.3.0/AndroidManifest.xml:22:5-20
REJECTED from [com.android.support:support-v4:23.3.0] /Users/senaardyputra/Documents/EP&R Project/CommSprinkler/app/build/intermediates/exploded-aar/com.android.support/support-v4/23.3.0/AndroidManifest.xml:22:5-20
REJECTED from [CommSprinkler:fileChooser:unspecified] /Users/senaardyputra/Documents/EP&R Project/CommSprinkler/app/build/intermediates/exploded-aar/CommSprinkler/fileChooser/unspecified/AndroidManifest.xml:13:5-20:19
REJECTED from [CommSprinkler:library:unspecified] /Users/senaardyputra/Documents/EP&R Project/CommSprinkler/app/build/intermediates/exploded-aar/CommSprinkler/library/unspecified/AndroidManifest.xml:9:5-20
REJECTED from [com.android.support:support-v4:23.3.0] /Users/senaardyputra/Documents/EP&R Project/CommSprinkler/app/build/intermediates/exploded-aar/com.android.support/support-v4/23.3.0/AndroidManifest.xml:22:5-20
REJECTED from [CommSprinkler:MultiStateToggleButton:unspecified] /Users/senaardyputra/Documents/EP&R Project/CommSprinkler/app/build/intermediates/exploded-aar/CommSprinkler/MultiStateToggleButton/unspecified/AndroidManifest.xml:11:5-16:19
REJECTED from [com.android.support:design:23.3.0] /Users/senaardyputra/Documents/EP&R Project/CommSprinkler/app/build/intermediates/exploded-aar/com.android.support/design/23.3.0/AndroidManifest.xml:22:5-20
REJECTED from [com.android.support:appcompat-v7:23.3.0] /Users/senaardyputra/Documents/EP&R Project/CommSprinkler/app/build/intermediates/exploded-aar/com.android.support/appcompat-v7/23.3.0/AndroidManifest.xml:25:5-20
REJECTED from [com.android.support:support-vector-drawable:23.3.0] /Users/senaardyputra/Documents/EP&R Project/CommSprinkler/app/build/intermediates/exploded-aar/com.android.support/support-vector-drawable/23.3.0/AndroidManifest.xml:7:5-20
REJECTED from [com.android.support:support-v4:23.3.0] /Users/senaardyputra/Documents/EP&R Project/CommSprinkler/app/build/intermediates/exploded-aar/com.android.support/support-v4/23.3.0/AndroidManifest.xml:22:5-20
REJECTED from [com.android.support:animated-vector-drawable:23.3.0] /Users/senaardyputra/Documents/EP&R Project/CommSprinkler/app/build/intermediates/exploded-aar/com.android.support/animated-vector-drawable/23.3.0/AndroidManifest.xml:7:5-20
REJECTED from [com.android.support:support-vector-drawable:23.3.0] /Users/senaardyputra/Documents/EP&R Project/CommSprinkler/app/build/intermediates/exploded-aar/com.android.support/support-vector-drawable/23.3.0/AndroidManifest.xml:7:5-20
REJECTED from [com.android.support:support-v4:23.3.0] /Users/senaardyputra/Documents/EP&R Project/CommSprinkler/app/build/intermediates/exploded-aar/com.android.support/support-v4/23.3.0/AndroidManifest.xml:22:5-20
REJECTED from [com.android.support:support-v4:23.3.0] /Users/senaardyputra/Documents/EP&R Project/CommSprinkler/app/build/intermediates/exploded-aar/com.android.support/support-v4/23.3.0/AndroidManifest.xml:22:5-20
REJECTED from [com.android.support:support-v4:23.3.0] /Users/senaardyputra/Documents/EP&R Project/CommSprinkler/app/build/intermediates/exploded-aar/com.android.support/support-v4/23.3.0/AndroidManifest.xml:22:5-20
REJECTED from [com.android.support:support-v4:23.3.0] /Users/senaardyputra/Documents/EP&R Project/CommSprinkler/app/build/intermediates/exploded-aar/com.android.support/support-v4/23.3.0/AndroidManifest.xml:22:5-20
REJECTED from [com.android.support:cardview-v7:23.3.0] /Users/senaardyputra/Documents/EP&R Project/CommSprinkler/app/build/intermediates/exploded-aar/com.android.support/cardview-v7/23.3.0/AndroidManifest.xml:22:5-20
REJECTED from [com.android.support:support-v4:23.3.0] /Users/senaardyputra/Documents/EP&R Project/CommSprinkler/app/build/intermediates/exploded-aar/com.android.support/support-v4/23.3.0/AndroidManifest.xml:22:5-20
REJECTED from [CommSprinkler:captureActivity:unspecified] /Users/senaardyputra/Documents/EP&R Project/CommSprinkler/app/build/intermediates/exploded-aar/CommSprinkler/captureActivity/unspecified/AndroidManifest.xml:67:5-200:19
	tools:node
		ADDED from /Users/senaardyputra/Documents/EP&R Project/CommSprinkler/app/src/main/AndroidManifest.xml:21:9-29
	android:label
		ADDED from /Users/senaardyputra/Documents/EP&R Project/CommSprinkler/app/src/main/AndroidManifest.xml:18:9-41
	android:supportsRtl
		ADDED from /Users/senaardyputra/Documents/EP&R Project/CommSprinkler/app/src/main/AndroidManifest.xml:19:9-35
	android:allowBackup
		ADDED from /Users/senaardyputra/Documents/EP&R Project/CommSprinkler/app/src/main/AndroidManifest.xml:15:9-35
	android:icon
		ADDED from /Users/senaardyputra/Documents/EP&R Project/CommSprinkler/app/src/main/AndroidManifest.xml:17:9-43
	android:largeHeap
		ADDED from /Users/senaardyputra/Documents/EP&R Project/CommSprinkler/app/src/main/AndroidManifest.xml:16:9-33
	android:theme
		ADDED from /Users/senaardyputra/Documents/EP&R Project/CommSprinkler/app/src/main/AndroidManifest.xml:20:9-40
	android:name
		ADDED from /Users/senaardyputra/Documents/EP&R Project/CommSprinkler/app/src/main/AndroidManifest.xml:14:9-68
activity#com.ptfi.commsprinkler.FirstSplashScreen
ADDED from /Users/senaardyputra/Documents/EP&R Project/CommSprinkler/app/src/main/AndroidManifest.xml:22:9-29:20
	android:theme
		ADDED from /Users/senaardyputra/Documents/EP&R Project/CommSprinkler/app/src/main/AndroidManifest.xml:23:13-56
	android:name
		ADDED from /Users/senaardyputra/Documents/EP&R Project/CommSprinkler/app/src/main/AndroidManifest.xml:22:19-52
intent-filter#android.intent.action.MAIN+android.intent.category.LAUNCHER
ADDED from /Users/senaardyputra/Documents/EP&R Project/CommSprinkler/app/src/main/AndroidManifest.xml:24:13-28:29
action#android.intent.action.MAIN
ADDED from /Users/senaardyputra/Documents/EP&R Project/CommSprinkler/app/src/main/AndroidManifest.xml:25:17-69
	android:name
		ADDED from /Users/senaardyputra/Documents/EP&R Project/CommSprinkler/app/src/main/AndroidManifest.xml:25:25-66
category#android.intent.category.LAUNCHER
ADDED from /Users/senaardyputra/Documents/EP&R Project/CommSprinkler/app/src/main/AndroidManifest.xml:27:17-77
	android:name
		ADDED from /Users/senaardyputra/Documents/EP&R Project/CommSprinkler/app/src/main/AndroidManifest.xml:27:27-74
activity#com.ptfi.commsprinkler.SplashScreen
ADDED from /Users/senaardyputra/Documents/EP&R Project/CommSprinkler/app/src/main/AndroidManifest.xml:31:9-37:20
	android:label
		ADDED from /Users/senaardyputra/Documents/EP&R Project/CommSprinkler/app/src/main/AndroidManifest.xml:34:13-45
	android:windowSoftInputMode
		ADDED from /Users/senaardyputra/Documents/EP&R Project/CommSprinkler/app/src/main/AndroidManifest.xml:36:13-55
	android:configChanges
		ADDED from /Users/senaardyputra/Documents/EP&R Project/CommSprinkler/app/src/main/AndroidManifest.xml:33:13-74
	android:theme
		ADDED from /Users/senaardyputra/Documents/EP&R Project/CommSprinkler/app/src/main/AndroidManifest.xml:35:13-44
	android:name
		ADDED from /Users/senaardyputra/Documents/EP&R Project/CommSprinkler/app/src/main/AndroidManifest.xml:32:13-41
activity#com.ptfi.commsprinkler.MainMenu
ADDED from /Users/senaardyputra/Documents/EP&R Project/CommSprinkler/app/src/main/AndroidManifest.xml:39:9-45:20
	android:label
		ADDED from /Users/senaardyputra/Documents/EP&R Project/CommSprinkler/app/src/main/AndroidManifest.xml:42:13-45
	android:windowSoftInputMode
		ADDED from /Users/senaardyputra/Documents/EP&R Project/CommSprinkler/app/src/main/AndroidManifest.xml:44:13-55
	android:configChanges
		ADDED from /Users/senaardyputra/Documents/EP&R Project/CommSprinkler/app/src/main/AndroidManifest.xml:41:13-74
	android:theme
		ADDED from /Users/senaardyputra/Documents/EP&R Project/CommSprinkler/app/src/main/AndroidManifest.xml:43:13-44
	android:name
		ADDED from /Users/senaardyputra/Documents/EP&R Project/CommSprinkler/app/src/main/AndroidManifest.xml:40:13-37
activity#com.ptfi.commsprinkler.PagerSlidingMenu
ADDED from /Users/senaardyputra/Documents/EP&R Project/CommSprinkler/app/src/main/AndroidManifest.xml:47:9-53:20
	android:label
		ADDED from /Users/senaardyputra/Documents/EP&R Project/CommSprinkler/app/src/main/AndroidManifest.xml:50:13-45
	android:windowSoftInputMode
		ADDED from /Users/senaardyputra/Documents/EP&R Project/CommSprinkler/app/src/main/AndroidManifest.xml:52:13-55
	android:configChanges
		ADDED from /Users/senaardyputra/Documents/EP&R Project/CommSprinkler/app/src/main/AndroidManifest.xml:49:13-74
	android:theme
		ADDED from /Users/senaardyputra/Documents/EP&R Project/CommSprinkler/app/src/main/AndroidManifest.xml:51:13-44
	android:name
		ADDED from /Users/senaardyputra/Documents/EP&R Project/CommSprinkler/app/src/main/AndroidManifest.xml:48:13-45
activity#com.google.zxing.client.android.CaptureActivity
ADDED from /Users/senaardyputra/Documents/EP&R Project/CommSprinkler/app/src/main/AndroidManifest.xml:55:9-57:20
	android:name
		ADDED from /Users/senaardyputra/Documents/EP&R Project/CommSprinkler/app/src/main/AndroidManifest.xml:56:13-75
activity#br.com.thinkti.android.filechooser.FileChooser
ADDED from /Users/senaardyputra/Documents/EP&R Project/CommSprinkler/app/src/main/AndroidManifest.xml:59:9-63:20
	android:windowSoftInputMode
		ADDED from /Users/senaardyputra/Documents/EP&R Project/CommSprinkler/app/src/main/AndroidManifest.xml:62:13-55
	android:configChanges
		ADDED from /Users/senaardyputra/Documents/EP&R Project/CommSprinkler/app/src/main/AndroidManifest.xml:61:13-74
	android:name
		ADDED from /Users/senaardyputra/Documents/EP&R Project/CommSprinkler/app/src/main/AndroidManifest.xml:60:13-74
uses-sdk
INJECTED from /Users/senaardyputra/Documents/EP&R Project/CommSprinkler/app/src/main/AndroidManifest.xml reason: use-sdk injection requested
MERGED from [com.android.support:multidex:1.0.1] /Users/senaardyputra/Documents/EP&R Project/CommSprinkler/app/build/intermediates/exploded-aar/com.android.support/multidex/1.0.1/AndroidManifest.xml:18:5-42
MERGED from [com.android.support:appcompat-v7:23.3.0] /Users/senaardyputra/Documents/EP&R Project/CommSprinkler/app/build/intermediates/exploded-aar/com.android.support/appcompat-v7/23.3.0/AndroidManifest.xml:21:5-23:78
MERGED from [com.android.support:support-vector-drawable:23.3.0] /Users/senaardyputra/Documents/EP&R Project/CommSprinkler/app/build/intermediates/exploded-aar/com.android.support/support-vector-drawable/23.3.0/AndroidManifest.xml:5:5-43
MERGED from [com.android.support:support-v4:23.3.0] /Users/senaardyputra/Documents/EP&R Project/CommSprinkler/app/build/intermediates/exploded-aar/com.android.support/support-v4/23.3.0/AndroidManifest.xml:20:5-43
MERGED from [com.android.support:animated-vector-drawable:23.3.0] /Users/senaardyputra/Documents/EP&R Project/CommSprinkler/app/build/intermediates/exploded-aar/com.android.support/animated-vector-drawable/23.3.0/AndroidManifest.xml:5:5-44
MERGED from [com.android.support:support-vector-drawable:23.3.0] /Users/senaardyputra/Documents/EP&R Project/CommSprinkler/app/build/intermediates/exploded-aar/com.android.support/support-vector-drawable/23.3.0/AndroidManifest.xml:5:5-43
MERGED from [com.android.support:support-v4:23.3.0] /Users/senaardyputra/Documents/EP&R Project/CommSprinkler/app/build/intermediates/exploded-aar/com.android.support/support-v4/23.3.0/AndroidManifest.xml:20:5-43
MERGED from [com.android.support:support-v4:23.3.0] /Users/senaardyputra/Documents/EP&R Project/CommSprinkler/app/build/intermediates/exploded-aar/com.android.support/support-v4/23.3.0/AndroidManifest.xml:20:5-43
MERGED from [CommSprinkler:fileChooser:unspecified] /Users/senaardyputra/Documents/EP&R Project/CommSprinkler/app/build/intermediates/exploded-aar/CommSprinkler/fileChooser/unspecified/AndroidManifest.xml:7:5-9:40
MERGED from [CommSprinkler:library:unspecified] /Users/senaardyputra/Documents/EP&R Project/CommSprinkler/app/build/intermediates/exploded-aar/CommSprinkler/library/unspecified/AndroidManifest.xml:5:5-7:41
MERGED from [com.android.support:support-v4:23.3.0] /Users/senaardyputra/Documents/EP&R Project/CommSprinkler/app/build/intermediates/exploded-aar/com.android.support/support-v4/23.3.0/AndroidManifest.xml:20:5-43
MERGED from [CommSprinkler:MultiStateToggleButton:unspecified] /Users/senaardyputra/Documents/EP&R Project/CommSprinkler/app/build/intermediates/exploded-aar/CommSprinkler/MultiStateToggleButton/unspecified/AndroidManifest.xml:7:5-9:41
MERGED from [com.android.support:design:23.3.0] /Users/senaardyputra/Documents/EP&R Project/CommSprinkler/app/build/intermediates/exploded-aar/com.android.support/design/23.3.0/AndroidManifest.xml:20:5-43
MERGED from [com.android.support:appcompat-v7:23.3.0] /Users/senaardyputra/Documents/EP&R Project/CommSprinkler/app/build/intermediates/exploded-aar/com.android.support/appcompat-v7/23.3.0/AndroidManifest.xml:21:5-23:78
MERGED from [com.android.support:support-vector-drawable:23.3.0] /Users/senaardyputra/Documents/EP&R Project/CommSprinkler/app/build/intermediates/exploded-aar/com.android.support/support-vector-drawable/23.3.0/AndroidManifest.xml:5:5-43
MERGED from [com.android.support:support-v4:23.3.0] /Users/senaardyputra/Documents/EP&R Project/CommSprinkler/app/build/intermediates/exploded-aar/com.android.support/support-v4/23.3.0/AndroidManifest.xml:20:5-43
MERGED from [com.android.support:animated-vector-drawable:23.3.0] /Users/senaardyputra/Documents/EP&R Project/CommSprinkler/app/build/intermediates/exploded-aar/com.android.support/animated-vector-drawable/23.3.0/AndroidManifest.xml:5:5-44
MERGED from [com.android.support:support-vector-drawable:23.3.0] /Users/senaardyputra/Documents/EP&R Project/CommSprinkler/app/build/intermediates/exploded-aar/com.android.support/support-vector-drawable/23.3.0/AndroidManifest.xml:5:5-43
MERGED from [com.android.support:support-v4:23.3.0] /Users/senaardyputra/Documents/EP&R Project/CommSprinkler/app/build/intermediates/exploded-aar/com.android.support/support-v4/23.3.0/AndroidManifest.xml:20:5-43
MERGED from [com.android.support:support-v4:23.3.0] /Users/senaardyputra/Documents/EP&R Project/CommSprinkler/app/build/intermediates/exploded-aar/com.android.support/support-v4/23.3.0/AndroidManifest.xml:20:5-43
MERGED from [com.android.support:support-v4:23.3.0] /Users/senaardyputra/Documents/EP&R Project/CommSprinkler/app/build/intermediates/exploded-aar/com.android.support/support-v4/23.3.0/AndroidManifest.xml:20:5-43
MERGED from [com.android.support:recyclerview-v7:23.3.0] /Users/senaardyputra/Documents/EP&R Project/CommSprinkler/app/build/intermediates/exploded-aar/com.android.support/recyclerview-v7/23.3.0/AndroidManifest.xml:20:5-43
MERGED from [com.android.support:support-v4:23.3.0] /Users/senaardyputra/Documents/EP&R Project/CommSprinkler/app/build/intermediates/exploded-aar/com.android.support/support-v4/23.3.0/AndroidManifest.xml:20:5-43
MERGED from [com.android.support:cardview-v7:23.3.0] /Users/senaardyputra/Documents/EP&R Project/CommSprinkler/app/build/intermediates/exploded-aar/com.android.support/cardview-v7/23.3.0/AndroidManifest.xml:20:5-43
MERGED from [com.android.support:recyclerview-v7:23.3.0] /Users/senaardyputra/Documents/EP&R Project/CommSprinkler/app/build/intermediates/exploded-aar/com.android.support/recyclerview-v7/23.3.0/AndroidManifest.xml:20:5-43
MERGED from [com.android.support:support-v4:23.3.0] /Users/senaardyputra/Documents/EP&R Project/CommSprinkler/app/build/intermediates/exploded-aar/com.android.support/support-v4/23.3.0/AndroidManifest.xml:20:5-43
MERGED from [CommSprinkler:captureActivity:unspecified] /Users/senaardyputra/Documents/EP&R Project/CommSprinkler/app/build/intermediates/exploded-aar/CommSprinkler/captureActivity/unspecified/AndroidManifest.xml:23:5-25:41
MERGED from [com.android.support:multidex:1.0.1] /Users/senaardyputra/Documents/EP&R Project/CommSprinkler/app/build/intermediates/exploded-aar/com.android.support/multidex/1.0.1/AndroidManifest.xml:18:5-42
	tools:overrideLibrary
		ADDED from [com.android.support:appcompat-v7:23.3.0] /Users/senaardyputra/Documents/EP&R Project/CommSprinkler/app/build/intermediates/exploded-aar/com.android.support/appcompat-v7/23.3.0/AndroidManifest.xml:23:9-75
	android:targetSdkVersion
		INJECTED from /Users/senaardyputra/Documents/EP&R Project/CommSprinkler/app/src/main/AndroidManifest.xml
		INJECTED from /Users/senaardyputra/Documents/EP&R Project/CommSprinkler/app/src/main/AndroidManifest.xml
	android:minSdkVersion
		INJECTED from /Users/senaardyputra/Documents/EP&R Project/CommSprinkler/app/src/main/AndroidManifest.xml
		INJECTED from /Users/senaardyputra/Documents/EP&R Project/CommSprinkler/app/src/main/AndroidManifest.xml
uses-permission#android.permission.INTERNET
ADDED from [CommSprinkler:captureActivity:unspecified] /Users/senaardyputra/Documents/EP&R Project/CommSprinkler/app/build/intermediates/exploded-aar/CommSprinkler/captureActivity/unspecified/AndroidManifest.xml:28:5-67
	android:name
		ADDED from [CommSprinkler:captureActivity:unspecified] /Users/senaardyputra/Documents/EP&R Project/CommSprinkler/app/build/intermediates/exploded-aar/CommSprinkler/captureActivity/unspecified/AndroidManifest.xml:28:22-64
uses-permission#android.permission.READ_CONTACTS
ADDED from [CommSprinkler:captureActivity:unspecified] /Users/senaardyputra/Documents/EP&R Project/CommSprinkler/app/build/intermediates/exploded-aar/CommSprinkler/captureActivity/unspecified/AndroidManifest.xml:31:5-72
	android:name
		ADDED from [CommSprinkler:captureActivity:unspecified] /Users/senaardyputra/Documents/EP&R Project/CommSprinkler/app/build/intermediates/exploded-aar/CommSprinkler/captureActivity/unspecified/AndroidManifest.xml:31:22-69
uses-permission#com.android.browser.permission.READ_HISTORY_BOOKMARKS
ADDED from [CommSprinkler:captureActivity:unspecified] /Users/senaardyputra/Documents/EP&R Project/CommSprinkler/app/build/intermediates/exploded-aar/CommSprinkler/captureActivity/unspecified/AndroidManifest.xml:32:5-93
	android:name
		ADDED from [CommSprinkler:captureActivity:unspecified] /Users/senaardyputra/Documents/EP&R Project/CommSprinkler/app/build/intermediates/exploded-aar/CommSprinkler/captureActivity/unspecified/AndroidManifest.xml:32:22-90
uses-permission#android.permission.CHANGE_WIFI_STATE
ADDED from [CommSprinkler:captureActivity:unspecified] /Users/senaardyputra/Documents/EP&R Project/CommSprinkler/app/build/intermediates/exploded-aar/CommSprinkler/captureActivity/unspecified/AndroidManifest.xml:34:5-76
	android:name
		ADDED from [CommSprinkler:captureActivity:unspecified] /Users/senaardyputra/Documents/EP&R Project/CommSprinkler/app/build/intermediates/exploded-aar/CommSprinkler/captureActivity/unspecified/AndroidManifest.xml:34:22-73
uses-permission#android.permission.ACCESS_WIFI_STATE
ADDED from [CommSprinkler:captureActivity:unspecified] /Users/senaardyputra/Documents/EP&R Project/CommSprinkler/app/build/intermediates/exploded-aar/CommSprinkler/captureActivity/unspecified/AndroidManifest.xml:35:5-76
	android:name
		ADDED from [CommSprinkler:captureActivity:unspecified] /Users/senaardyputra/Documents/EP&R Project/CommSprinkler/app/build/intermediates/exploded-aar/CommSprinkler/captureActivity/unspecified/AndroidManifest.xml:35:22-73
uses-feature#android.hardware.camera
ADDED from [CommSprinkler:captureActivity:unspecified] /Users/senaardyputra/Documents/EP&R Project/CommSprinkler/app/build/intermediates/exploded-aar/CommSprinkler/captureActivity/unspecified/AndroidManifest.xml:38:5-40:36
	android:required
		ADDED from [CommSprinkler:captureActivity:unspecified] /Users/senaardyputra/Documents/EP&R Project/CommSprinkler/app/build/intermediates/exploded-aar/CommSprinkler/captureActivity/unspecified/AndroidManifest.xml:40:9-33
	android:name
		ADDED from [CommSprinkler:captureActivity:unspecified] /Users/senaardyputra/Documents/EP&R Project/CommSprinkler/app/build/intermediates/exploded-aar/CommSprinkler/captureActivity/unspecified/AndroidManifest.xml:39:9-47
uses-feature#android.hardware.camera.front
ADDED from [CommSprinkler:captureActivity:unspecified] /Users/senaardyputra/Documents/EP&R Project/CommSprinkler/app/build/intermediates/exploded-aar/CommSprinkler/captureActivity/unspecified/AndroidManifest.xml:41:5-43:36
	android:required
		ADDED from [CommSprinkler:captureActivity:unspecified] /Users/senaardyputra/Documents/EP&R Project/CommSprinkler/app/build/intermediates/exploded-aar/CommSprinkler/captureActivity/unspecified/AndroidManifest.xml:43:9-33
	android:name
		ADDED from [CommSprinkler:captureActivity:unspecified] /Users/senaardyputra/Documents/EP&R Project/CommSprinkler/app/build/intermediates/exploded-aar/CommSprinkler/captureActivity/unspecified/AndroidManifest.xml:42:9-53
uses-feature#android.hardware.camera.autofocus
ADDED from [CommSprinkler:captureActivity:unspecified] /Users/senaardyputra/Documents/EP&R Project/CommSprinkler/app/build/intermediates/exploded-aar/CommSprinkler/captureActivity/unspecified/AndroidManifest.xml:46:5-48:36
	android:required
		ADDED from [CommSprinkler:captureActivity:unspecified] /Users/senaardyputra/Documents/EP&R Project/CommSprinkler/app/build/intermediates/exploded-aar/CommSprinkler/captureActivity/unspecified/AndroidManifest.xml:48:9-33
	android:name
		ADDED from [CommSprinkler:captureActivity:unspecified] /Users/senaardyputra/Documents/EP&R Project/CommSprinkler/app/build/intermediates/exploded-aar/CommSprinkler/captureActivity/unspecified/AndroidManifest.xml:47:9-57
uses-feature#android.hardware.camera.flash
ADDED from [CommSprinkler:captureActivity:unspecified] /Users/senaardyputra/Documents/EP&R Project/CommSprinkler/app/build/intermediates/exploded-aar/CommSprinkler/captureActivity/unspecified/AndroidManifest.xml:49:5-51:36
	android:required
		ADDED from [CommSprinkler:captureActivity:unspecified] /Users/senaardyputra/Documents/EP&R Project/CommSprinkler/app/build/intermediates/exploded-aar/CommSprinkler/captureActivity/unspecified/AndroidManifest.xml:51:9-33
	android:name
		ADDED from [CommSprinkler:captureActivity:unspecified] /Users/senaardyputra/Documents/EP&R Project/CommSprinkler/app/build/intermediates/exploded-aar/CommSprinkler/captureActivity/unspecified/AndroidManifest.xml:50:9-53
uses-feature#android.hardware.screen.landscape
ADDED from [CommSprinkler:captureActivity:unspecified] /Users/senaardyputra/Documents/EP&R Project/CommSprinkler/app/build/intermediates/exploded-aar/CommSprinkler/captureActivity/unspecified/AndroidManifest.xml:52:5-70
	android:name
		ADDED from [CommSprinkler:captureActivity:unspecified] /Users/senaardyputra/Documents/EP&R Project/CommSprinkler/app/build/intermediates/exploded-aar/CommSprinkler/captureActivity/unspecified/AndroidManifest.xml:52:19-67
uses-feature#android.hardware.wifi
ADDED from [CommSprinkler:captureActivity:unspecified] /Users/senaardyputra/Documents/EP&R Project/CommSprinkler/app/build/intermediates/exploded-aar/CommSprinkler/captureActivity/unspecified/AndroidManifest.xml:53:5-55:36
	android:required
		ADDED from [CommSprinkler:captureActivity:unspecified] /Users/senaardyputra/Documents/EP&R Project/CommSprinkler/app/build/intermediates/exploded-aar/CommSprinkler/captureActivity/unspecified/AndroidManifest.xml:55:9-33
	android:name
		ADDED from [CommSprinkler:captureActivity:unspecified] /Users/senaardyputra/Documents/EP&R Project/CommSprinkler/app/build/intermediates/exploded-aar/CommSprinkler/captureActivity/unspecified/AndroidManifest.xml:54:9-45
uses-feature#android.hardware.touchscreen
ADDED from [CommSprinkler:captureActivity:unspecified] /Users/senaardyputra/Documents/EP&R Project/CommSprinkler/app/build/intermediates/exploded-aar/CommSprinkler/captureActivity/unspecified/AndroidManifest.xml:57:5-65
	android:name
		ADDED from [CommSprinkler:captureActivity:unspecified] /Users/senaardyputra/Documents/EP&R Project/CommSprinkler/app/build/intermediates/exploded-aar/CommSprinkler/captureActivity/unspecified/AndroidManifest.xml:57:19-62
supports-screens
ADDED from [CommSprinkler:captureActivity:unspecified] /Users/senaardyputra/Documents/EP&R Project/CommSprinkler/app/build/intermediates/exploded-aar/CommSprinkler/captureActivity/unspecified/AndroidManifest.xml:60:5-65:40
	android:largeScreens
		ADDED from [CommSprinkler:captureActivity:unspecified] /Users/senaardyputra/Documents/EP&R Project/CommSprinkler/app/build/intermediates/exploded-aar/CommSprinkler/captureActivity/unspecified/AndroidManifest.xml:62:9-36
	android:smallScreens
		ADDED from [CommSprinkler:captureActivity:unspecified] /Users/senaardyputra/Documents/EP&R Project/CommSprinkler/app/build/intermediates/exploded-aar/CommSprinkler/captureActivity/unspecified/AndroidManifest.xml:64:9-36
	android:normalScreens
		ADDED from [CommSprinkler:captureActivity:unspecified] /Users/senaardyputra/Documents/EP&R Project/CommSprinkler/app/build/intermediates/exploded-aar/CommSprinkler/captureActivity/unspecified/AndroidManifest.xml:63:9-37
	android:xlargeScreens
		ADDED from [CommSprinkler:captureActivity:unspecified] /Users/senaardyputra/Documents/EP&R Project/CommSprinkler/app/build/intermediates/exploded-aar/CommSprinkler/captureActivity/unspecified/AndroidManifest.xml:65:9-37
	android:anyDensity
		ADDED from [CommSprinkler:captureActivity:unspecified] /Users/senaardyputra/Documents/EP&R Project/CommSprinkler/app/build/intermediates/exploded-aar/CommSprinkler/captureActivity/unspecified/AndroidManifest.xml:61:9-34
